{
  "C-HX": [
    0.0,
    1.0
  ],
  "C-HY": [
    -3.111,
    -1.733
  ],
  "C-JX": [
    -0.404,
    0.0
  ],
  "C-JA": [
    -7.0,
    0.0
  ],
  "C-LP": [
    -1.0,
    1.0
  ],
  "C-LD": [
    -1.102,
    2.205
  ],
  "C-VS": [
    0.0,
    1.0
  ],
  "C-TCX": [
    -3.248,
    2.673
  ],
  "C-TCY": [
    -1.457,
    1.0
  ],
  "C-TTX": [
    1.002,
    3.675
  ],
  "C-TTY": [
    -1.457,
    1.574
  ],
  "C-TBX": [
    -3.248,
    2.673
  ],
  "C-TBY": [
    -1.457,
    2.952
  ],
  "C-TRX": [
    -4.331,
    1.336
  ],
  "C-TRY": [
    -3.111,
    0.196
  ],
  "C-TS1": [
    0.0,
    1.0
  ],
  "C-TS2": [
    0.0,
    1.0
  ],
  "C-TS3": [
    -1.0,
    1.0
  ],
  "C-vt_tau_s": [
    0.005,
    0.039
  ]
}