{
  "V-HX": [
    0.0,
    1.0
  ],
  "V-HY": [
    -3.111,
    -1.733
  ],
  "V-JX": [
    -0.404,
    0.0
  ],
  "V-JA": [
    -7.0,
    0.0
  ],
  "V-LP": [
    -1.0,
    1.0
  ],
  "V-LD": [
    -1.102,
    2.205
  ],
  "V-VS": [
    0.0,
    1.0
  ],
  "V-TCX": [
    -3.248,
    2.673
  ],
  "V-TCY": [
    -1.457,
    1.0
  ],
  "V-TTX": [
    1.002,
    3.675
  ],
  "V-TTY": [
    -1.457,
    1.574
  ],
  "V-TBX": [
    -3.248,
    2.673
  ],
  "V-TBY": [
    -1.457,
    2.952
  ],
  "V-TRX": [
    -4.331,
    1.336
  ],
  "V-TRY": [
    -3.111,
    0.196
  ],
  "V-TS1": [
    0.0,
    1.0
  ],
  "V-TS2": [
    0.0,
    1.0
  ],
  "V-TS3": [
    -1.0,
    1.0
  ],
  "V-vt_tau_s": [
    0.005,
    0.039
  ]
}