{
    "C_coda-vt_tau_s": [
        0.005,
        0.039
    ],
    "C_coda-_SP": [
        0.000,
        8000.000
    ],
    "C_coda-_CA": [
	-0.250,
	0.250
    ],
    "C_coda-_RA": [
	-1.000,
	1.000
    ],
    "C_coda-gl_tau_s": [
        0.005,
        0.039
    ],
    "V_coda-vt_tau_s": [
        0.005,
        0.039
    ],
    "V_coda-_SP": [
        0.000,
        1.000
    ],
    "V_coda-_CA": [
	-0.250,
	0.250
    ],
    "V_coda-_RA": [
	-1.000,
	1.000
    ],
    "V_coda-gl_tau_s": [
        0.005,
        0.010
    ]
}
