{
    "constraints": {
        "tongue_tip_length": 1.500
    },
    "vtl": {
        "HX": {"min": 0.000, "max": 1.000, "default": 1.000},
        "HY": {"min": -6.000, "max": -3.500, "default": -4.750},
        "JX": {"min": -0.500, "max": 0.000, "default": 0.000},
        "JA": {"min": -7.000, "max": 0.000, "default": -2.000},
        "LP": {"min": -1.000, "max": 1.000, "default": -0.070},
        "LD": {"min": -2.000, "max": 4.000, "default": 0.950},
        "VS": {"min": 0.000, "max": 1.000, "default": 0.000},
        "VO": {"min": -0.100, "max": 1.000, "default": -0.100},
        "TCX": {"min": -3.000, "max": 4.000, "default": -0.400},
        "TCY": {"min": -3.000, "max": 1.000, "default": -1.460},
        "TTX": {"min": 1.500, "max": 5.500, "default": 3.500},
        "TTY": {"min": -3.000, "max": 2.500, "default": -1.000},
        "TBX": {"min": -3.000, "max": 4.000, "default": 2.000},
        "TBY": {"min": -3.000, "max": 5.000, "default": 0.500},
        "TRX": {"min": -4.000, "max": 2.000, "default": 0.000},
        "TRY": {"min": -6.000, "max": 0.000, "default": 0.000},
        "TS1": {"min": 0.000, "max": 1.000, "default": 0.000},
        "TS2": {"min": 0.000, "max": 1.000, "default": 0.000},
        "TS3": {"min": -1.000, "max": 1.000, "default": 0.000},
        "vt_tau_s": {"min": 0.005, "max": 0.039, "default": 0.010},
        "_F0": {"min": 40.000, "max": 600.000, "default": 120.000},
        "_SP": {"min": 0.000, "max": 20000.000, "default": 8000.000},
        "_LD": {"min": -0.050, "max": 0.300, "default": 0.030},
        "_UD": {"min": -0.050, "max": 0.300, "default": 0.030},
        "_CA": {"min": -0.250, "max": 0.250, "default": 0.000},
        "_PL": {"min": 0.000, "max": 3.1415, "default": 0.880},
        "_RA": {"min": -1.000, "max": 1.000, "default": 1.000},
        "_DP": {"min": 0.000, "max": 1.000, "default": 0.000},
        "_PS": {"min": -0.500, "max": 0.500, "default": 0.000},
        "_FL": {"min": 0.000, "max": 100.000, "default": 25.000},
        "_AS": {"min": -40.000, "max": 0.000, "default": -40.000},
        "gl_tau_s": {"min": 0.005, "max": 0.039, "default": 0.010}
    }
}
