{
  "V-HX": [
    0.0,
    1.0
  ],
  "V-HY": [
    -6.0,
    -3.5
  ],
  "V-JX": [
    -0.5,
    0.0
  ],
  "V-JA": [
    -7.0,
    0.0
  ],
  "V-LP": [
    -1.0,
    1.0
  ],
  "V-LD": [
    -2.0,
    4.0
  ],
  "V-VS": [
    0.0,
    1.0
  ],
  "V-TCX": [
    -3.0,
    4.0
  ],
  "V-TCY": [
    -3.0,
    1.0
  ],
  "V-TTX": [
    1.5,
    5.5
  ],
  "V-TTY": [
    -3.0,
    2.5
  ],
  "V-TBX": [
    -3.0,
    4.0
  ],
  "V-TBY": [
    -3.0,
    5.0
  ],
  "V-TS1": [
    0.0,
    1.0
  ],
  "V-TS2": [
    0.0,
    1.0
  ],
  "V-TS3": [
    -1.0,
    1.0
  ],
  "V-gl_tau_s": [
    0.005,
    0.010
  ],
  "C-HX": [
    0.0,
    1.0
  ],
  "C-HY": [
    -6.0,
    -3.5
  ],
  "C-JX": [
    -0.5,
    0.0
  ],
  "C-JA": [
    -7.0,
    0.0
  ],
  "C-LP": [
    -1.0,
    1.0
  ],
  "C-LD": [
    -2.0,
    4.0
  ],
  "C-VS": [
    0.0,
    1.0
  ],
  "C-TCX": [
    -3.0,
    4.0
  ],
  "C-TCY": [
    -3.0,
    1.0
  ],
  "C-TTX": [
    1.5,
    5.5
  ],
  "C-TTY": [
    -3.0,
    2.5
  ],
  "C-TBX": [
    -3.0,
    4.0
  ],
  "C-TBY": [
    -3.0,
    5.0
  ],
  "C-TS1": [
    0.0,
    1.0
  ],
  "C-TS2": [
    0.0,
    1.0
  ],
  "C-TS3": [
    -1.0,
    1.0
  ],
  "C-_CA": [
    -0.25,
    0.25
  ],
  "C-_RA": [
    -1.0,
    1.0
  ]
}
