{
  "V-HX": [
    0.0,
    1.0
  ],
  "V-HY": [
    -6.0,
    -3.5
  ],
  "V-JX": [
    -0.5,
    0.0
  ],
  "V-JA": [
    -7.0,
    0.0
  ],
  "V-LP": [
    -1.0,
    1.0
  ],
  "V-LD": [
    -2.0,
    4.0
  ],
  "V-VS": [
    0.0,
    1.0
  ],
  "V-TCX": [
    -3.0,
    4.0
  ],
  "V-TCY": [
    -3.0,
    1.0
  ],
  "V-TTX": [
    1.5,
    5.5
  ],
  "V-TTY": [
    -3.0,
    2.5
  ],
  "V-TBX": [
    -3.0,
    4.0
  ],
  "V-TBY": [
    -3.0,
    5.0
  ],
  "V-TS1": [
    0.0,
    1.0
  ],
  "V-TS2": [
    0.0,
    1.0
  ],
  "V-TS3": [
    -1.0,
    1.0
  ],
  "V-vt_tau_s": [
    0.005,
    0.039
  ]
}